4711;2;100.20;Riesenschultüte
0815;10;2.33;Kaugummi
2325;1;1.20;Mars
1215;1;743.99;Laptop
3315;3;1.50;Knoppers
2865;1;1200;Iphone XY
1233;10;2.2;Mentos
0010;10;7.60;MNS-Masken
0229;2;2.33; Kugelschreiber
3922;1;10.50; Ladekabel
